<svg width="1200" height="800" viewBox="0 0 1200 800" fill="none" xmlns="http://www.w3.org/2000/svg">
<g filter="url(#filter0_d_4601_104)">
<ellipse cx="15.5307" cy="15.9988" rx="15.5307" ry="15.9988" transform="matrix(0.999972 -0.0076778 0.00529343 0.999986 851.324 240.648)" fill="white"/>
</g>
<path d="M863.038 271.148L809.015 403.826" stroke="white" stroke-width="1.72551"/>
<path d="M881.117 254.862L929.748 261.146" stroke="white" stroke-width="1.72551"/>
<path d="M877.223 246.697L967.502 170.666" stroke="white" stroke-width="1.72551"/>
<path d="M862.593 241.262L813.987 173.743" stroke="white" stroke-width="1.72551"/>
<path d="M854.602 248.24L740.806 227.443" stroke="white" stroke-width="1.72551"/>
<path d="M852.134 256.406L747.502 277.989" stroke="white" stroke-width="1.72551"/>
<g filter="url(#filter1_d_4601_104)">
<ellipse cx="15.5307" cy="15.9988" rx="15.5307" ry="15.9988" transform="matrix(0.999972 -0.0076778 0.00529343 0.999986 1145.92 145.444)" fill="white"/>
</g>
<path d="M1148.76 170.12L1066.95 224.875" stroke="white" stroke-width="1.72551"/>
<line y1="-0.865" x2="87.7852" y2="-0.865" transform="matrix(0.361405 -0.932462 0.923982 0.382294 1166.79 147.771)" stroke="white" stroke-width="1.73"/>
<line y1="-0.865" x2="33.0859" y2="-0.865" transform="matrix(0.738943 0.673657 -0.64946 0.760493 1172.95 170.667)" stroke="white" stroke-width="1.73"/>
<g filter="url(#filter2_d_4601_104)">
<ellipse cx="15.2895" cy="15.4177" rx="15.2895" ry="15.4177" transform="matrix(0.999971 -0.00771807 0.0052644 0.999986 958.899 556.543)" fill="white"/>
</g>
<path d="M964.775 583.384L848.8 757.438" stroke="white" stroke-width="1.72551"/>
<path d="M989.665 744.091L974.293 585.846" stroke="white" stroke-width="1.72551"/>
<path d="M1048.96 672.395L983.068 584.205" stroke="white" stroke-width="1.72551"/>
<defs>
<filter id="filter0_d_4601_104" x="841.408" y="230.529" width="51.0609" height="51.998" filterUnits="userSpaceOnUse" color-interpolation-filters="sRGB">
<feFlood flood-opacity="0" result="BackgroundImageFix"/>
<feColorMatrix in="SourceAlpha" type="matrix" values="0 0 0 0 0 0 0 0 0 0 0 0 0 0 0 0 0 0 127 0" result="hardAlpha"/>
<feMorphology radius="5" operator="dilate" in="SourceAlpha" result="effect1_dropShadow_4601_104"/>
<feOffset/>
<feGaussianBlur stdDeviation="2.5"/>
<feColorMatrix type="matrix" values="0 0 0 0 1 0 0 0 0 1 0 0 0 0 1 0 0 0 0.76 0"/>
<feBlend mode="normal" in2="BackgroundImageFix" result="effect1_dropShadow_4601_104"/>
<feBlend mode="normal" in="SourceGraphic" in2="effect1_dropShadow_4601_104" result="shape"/>
</filter>
<filter id="filter1_d_4601_104" x="1136" y="135.325" width="51.0609" height="51.998" filterUnits="userSpaceOnUse" color-interpolation-filters="sRGB">
<feFlood flood-opacity="0" result="BackgroundImageFix"/>
<feColorMatrix in="SourceAlpha" type="matrix" values="0 0 0 0 0 0 0 0 0 0 0 0 0 0 0 0 0 0 127 0" result="hardAlpha"/>
<feMorphology radius="5" operator="dilate" in="SourceAlpha" result="effect1_dropShadow_4601_104"/>
<feOffset/>
<feGaussianBlur stdDeviation="2.5"/>
<feColorMatrix type="matrix" values="0 0 0 0 1 0 0 0 0 1 0 0 0 0 1 0 0 0 0.76 0"/>
<feBlend mode="normal" in2="BackgroundImageFix" result="effect1_dropShadow_4601_104"/>
<feBlend mode="normal" in="SourceGraphic" in2="effect1_dropShadow_4601_104" result="shape"/>
</filter>
<filter id="filter2_d_4601_104" x="948.98" y="546.425" width="50.5786" height="50.8357" filterUnits="userSpaceOnUse" color-interpolation-filters="sRGB">
<feFlood flood-opacity="0" result="BackgroundImageFix"/>
<feColorMatrix in="SourceAlpha" type="matrix" values="0 0 0 0 0 0 0 0 0 0 0 0 0 0 0 0 0 0 127 0" result="hardAlpha"/>
<feMorphology radius="5" operator="dilate" in="SourceAlpha" result="effect1_dropShadow_4601_104"/>
<feOffset/>
<feGaussianBlur stdDeviation="2.5"/>
<feColorMatrix type="matrix" values="0 0 0 0 1 0 0 0 0 1 0 0 0 0 1 0 0 0 0.76 0"/>
<feBlend mode="normal" in2="BackgroundImageFix" result="effect1_dropShadow_4601_104"/>
<feBlend mode="normal" in="SourceGraphic" in2="effect1_dropShadow_4601_104" result="shape"/>
</filter>
</defs>
</svg>
